{
    "results": [
        {
            "code": "1A03.0",
            "title_en": "Enteropathogenic Escherichia coli infection",
            "title_ar": "عَدوَى بالإِشْريكِيَّات القولونِيَّة المُمْرِضة للأَمْعاء",
            "definition_en": "An infection of the gastrointestinal system, caused by the gram-negative bacteria Escherichia coli. It is characterised by acute, profuse, watery diarrhoea. Transmission is by the faecal-oral route from contaminated food, water, or fomites. Confirmation is by identification of the Escherichia coli in a faecal sample.",
            "definition_ar": "عدوى تصيب الجهاز الهضمي (المعدة والأمعاء) ناجمة عن جراثيم الإِشْريكِيَّات القولونية السلبية الغرام. وتتسم بالإسهَال الحاد والغزير والمائي. يَنتَقل بالسبيل البرازي-الفموي عبر الأغذية أو المِيَاه أو الأشياء الملوثة. يتأكَّد التشخيص بكشف جراثيم الإِشْريكِيَّات القولونِيَّة في عينة البراز.",
            "index_terms_en": [
                "Enteropathogenic Escherichia coli infection",
                "EPEC - [Enteropathogenic Escherichia coli] infection",
                "Enteritis in enteropathogenic Escherichia coli infection",
                "Colitis in enteropathogenic Escherichia coli infection"
            ],
            "index_terms_ar": [
                "عَدوَى بالإِشْريكِيَّات القولونِيَّة المُمْرِضة للأَمْعاء",
                "عَدوَى بالإِشْريكِيَّات القولونِيَّة المُمْرِضة للأَمْعاء",
                "عَدوَى بالإِشْريكِيا كولي إنتيروباثوجينيك",
                "الْتِهابُ الأَمْعاء في عَدوَى الإِشْريكِيَّات القولونِيَّة المُمْرِضة للأَمْعاء (إِشْريكِيا إنتيروباثوجينيك)",
                "الْتِهابُ الأَمْعاء في عَدوَى بالإِشْريكِيا كولي إنتيروباثوجينيك",
                "الْتِهابُ القولون في عَدوَى الإِشْريكِيَّات القولونِيَّة المُمْرِضة للأَمْعاء (إِشْريكِيا إنتيروباثوجينيك)",
                "الْتِهابُ القولون في عَدوَى بالإِشْريكِيا كولي إنتيروباثوجينيك"
            ]
        },
        {
            "code": "1A03.0",
            "title_en": "Enteropathogenic Escherichia coli infection",
            "title_ar": "عَدوَى بالإِشْريكِيَّات القولونِيَّة المُمْرِضة للأَمْعاء",
            "definition_en": "An infection of the gastrointestinal system, caused by the gram-negative bacteria Escherichia coli. It is characterised by acute, profuse, watery diarrhoea. Transmission is by the faecal-oral route from contaminated food, water, or fomites. Confirmation is by identification of the Escherichia coli in a faecal sample.",
            "definition_ar": "عدوى تصيب الجهاز الهضمي (المعدة والأمعاء) ناجمة عن جراثيم الإِشْريكِيَّات القولونية السلبية الغرام. وتتسم بالإسهَال الحاد والغزير والمائي. يَنتَقل بالسبيل البرازي-الفموي عبر الأغذية أو المِيَاه أو الأشياء الملوثة. يتأكَّد التشخيص بكشف جراثيم الإِشْريكِيَّات القولونِيَّة في عينة البراز.",
            "index_terms_en": [
                "Enteropathogenic Escherichia coli infection",
                "EPEC - [Enteropathogenic Escherichia coli] infection",
                "Enteritis in enteropathogenic Escherichia coli infection",
                "Colitis in enteropathogenic Escherichia coli infection"
            ],
            "index_terms_ar": [
                "عَدوَى بالإِشْريكِيَّات القولونِيَّة المُمْرِضة للأَمْعاء",
                "عَدوَى بالإِشْريكِيَّات القولونِيَّة المُمْرِضة للأَمْعاء",
                "عَدوَى بالإِشْريكِيا كولي إنتيروباثوجينيك",
                "الْتِهابُ الأَمْعاء في عَدوَى الإِشْريكِيَّات القولونِيَّة المُمْرِضة للأَمْعاء (إِشْريكِيا إنتيروباثوجينيك)",
                "الْتِهابُ الأَمْعاء في عَدوَى بالإِشْريكِيا كولي إنتيروباثوجينيك",
                "الْتِهابُ القولون في عَدوَى الإِشْريكِيَّات القولونِيَّة المُمْرِضة للأَمْعاء (إِشْريكِيا إنتيروباثوجينيك)",
                "الْتِهابُ القولون في عَدوَى بالإِشْريكِيا كولي إنتيروباثوجينيك"
            ]
        },
        {
            "code": "1A03.2",
            "title_en": "Enteroinvasive Escherichia coli infection",
            "title_ar": "عَدوَى بالإِشْريكِيَّات القولونِيَّة الغزويّة للأَمْعاء",
            "definition_en": "A condition of the gastrointestinal system, caused by an infection with the gram-negative bacteria Escherichia coli. This condition is characterised by acute and profuse diarrhoea (that may be haemorrhagic), fever, and abdominal cramps. Transmission is by the faecal-oral route from ingestion of contaminated food or water. Confirmation is by identification of the Escherichia coli in a faecal sample.",
            "definition_ar": "حالة تصيب الجهاز الهضمي (المعدة والأمعاء) ناجمة عن عدوى بجراثيم الإِشْريكِيَّات القولونية السلبية الغرام. وتتسم هذه الحالة بالإسهَال الحاد والغزير (وقد يكون نزفيًا) والحمى والتقلصات في العضلات البطنية بسبب ذيفانات تنطلق من تلك الجراثيم. تَنتَقل العدوى عن طريق السبيل البرازي-الفموي بتناول الأغذية أو المِيَاه الملوثة. يتأكَّد التشخيص بكشف جراثيم الإِشْريكِيَّات القولونِيَّة في عينة البراز.",
            "index_terms_en": [
                "Enteroinvasive Escherichia coli infection",
                "EIEC - [Enteroinvasive Escherichia coli] infection",
                "Enteritis in enteroinvasive Escherichia coli infection",
                "Colitis in enteroinvasive Escherichia coli infection"
            ],
            "index_terms_ar": [
                "عَدوَى بالإِشْريكِيَّات القولونِيَّة الغزويّة للأَمْعاء",
                "عَدوَى بالإِشْريكِيَّات القولونِيَّة الغزويَّة للأَمْعاء",
                "عَدوَى بإِشْريكِيا كولي إنتيروإنفيسيف",
                "الْتِهابُ الأَمْعاء في عَدوَى الإِشْريكِيَّات القولونِيَّة الغزويَّة للأَمْعاء",
                "التهاب الأمعاء في عَدوَى بإِشْريكِيا كولي إنتيروإنفيسيف",
                "الْتِهابُ القولون في عَدوَى الإِشْريكِيَّات القولونِيَّة الغازِيَة للأَمْعاء",
                "الْتِهابُ القولون في عَدوَى بالإِشْريكِيا كولي إنتيروإنفيسيف"
            ]
        },
        {
            "code": "1A07.0",
            "title_en": "Typhoid peritonitis",
            "title_ar": "التهاب الصفاق بالتيفويد",
            "definition_en": "",
            "definition_ar": "",
            "index_terms_en": [
                "Typhoid peritonitis",
                "typhoperitonitis"
            ],
            "index_terms_ar": [
                "التهاب الصفاق بالتيفويد",
                "التهاب الصفاق بالتيفويد",
                "التهاب البريتوان بالتيفويد"
            ]
        },
        {
            "code": "1A33.0",
            "title_en": "Cystoisosporiasis of small intestine",
            "title_ar": "داءُ الكيسات مُتَمَاثِلاتِ الأَبواغ (سيستوأيزوسبورياسيس) في الأمعاء الدقيقة",
            "definition_en": "",
            "definition_ar": "",
            "index_terms_en": [
                "Cystoisosporiasis of small intestine",
                "coccidial enteritis",
                "enteric coccidiosis",
                "Infection due to Isopora hominis",
                "Infection due to Isopora belli"
            ],
            "index_terms_ar": [
                "داءُ الكيسات مُتَمَاثِلاتِ الأَبواغ (سيستوأيزوسبورياسيس) في الأمعاء الدقيقة",
                "التهاب الأمعاء بالأُكْرِيَّات",
                "التهاب الأمعاء بالأُكْرِيَّات",
                "عدوى اجمة عن مُتَمَاثِلاتِ الأَبواغ المعوية (أيزوسبورا بيلي)",
                "عدوى بمُتَمَاثِلاتِ الأَبواغ البشرية (أيزوسبورا هومينيس)",
                "داءُ سيستوأيزوسبورا في الأمعاء الدقيقة",
                "سيستوأيزوسبورياسيس في الأمعاء الدقيقة"
            ]
        },
        {
            "code": "1A03.1",
            "title_en": "Enterotoxigenic Escherichia coli infection",
            "title_ar": "عَدوَى بالإِشْريكِيَّات القولونِيَّة المُنْتِجَة للذِّيفانِ المِعَويّ",
            "definition_en": "A condition of the gastrointestinal system, caused by an infection with the gram-negative bacteria Escherichia coli. This condition is characterised by acute, watery diarrhoea due to toxins released from the bacteria. Transmission is by the faecal-oral route from ingestion of contaminated food, water, or fomites. Confirmation is by identification of the Escherichia coli in faecal sample.",
            "definition_ar": "حالة تصيب الجهاز الهضمي (المعدة والأمعاء) ناجمة عن عدوى بجراثيم الإِشْريكِيَّات القولونية السلبية الغرام. وتتسم هذه الحالة بالإسهَال الحاد والمائي بسبب ذيفانات تنطلق من تلك الجراثيم. تَنتَقل العدوى عن طريق السبيل البرازي-الفموي بتناول الأغذية أو المِيَاه أو الأشياء الملوثة. يتأكَّد التشخيص بكشف جراثيم الإِشْريكيات القولونِيَّة في عينة البراز.",
            "index_terms_en": [
                "Enterotoxigenic Escherichia coli infection",
                "ETEC - [Enterotoxigenic Escherichia coli] infection",
                "enterotoxic Escherichia coli infection",
                "Enteritis in enterotoxigenic Escherichia coli infection",
                "Colitis in enterotoxigenic Escherichia coli infection"
            ],
            "index_terms_ar": [
                "عَدوَى بالإِشْريكِيَّات القولونِيَّة المُنْتِجَة للذِّيفانِ المِعَويّ",
                "عَدوَى بالإِشْريكِيَّات القولونِيَّة المُنْتِجَة للذِّيفانِ المِعَويّ",
                "عَدوَى بالإِشْريكِيَّات القولونِيَّة المُنْتِجَة للذِّيفانِ المِعَويّ",
                "عَدوَى بالإِشْريكِيا كولي إنتيروتوكسوجينيك",
                "الْتِهابُ الأَمْعاء في عَدوَى الإِشْريكِيَّات القولونِيَّة المُنْتِجَة للذِّيفانِ المِعَويّ",
                "الْتِهابُ الأَمْعاء في عَدوَى بالإِشْريكِيا كولي إنتيروتوكسيجينيك",
                "الْتِهابُ القولون في عَدوَى الإِشْريكِيَّات القولونِيَّة المُنْتِجَة للذِّيفانِ المِعَويّ",
                "الْتِهابُ القولون في عَدوَى بإِشْريكِيا كولي إنتيروتوكسيجينيك"
            ]
        },
        {
            "code": "1A03.3",
            "title_en": "Enterohaemorrhagic Escherichia coli infection",
            "title_ar": "عَدوَى بالإِشْريكِيَّات القولونِيَّة المُنْزِفة للأَمْعاء",
            "definition_en": "",
            "definition_ar": "",
            "index_terms_en": [
                "Enterohaemorrhagic Escherichia coli infection",
                "EHEC - [Enterohaemorrhagic Escherichia coli] infection",
                "Enteritis in enterohaemorrhagic Escherichia coli infection",
                "Colitis in enterohaemorrhagic Escherichia coli infection"
            ],
            "index_terms_ar": [
                "عَدوَى بالإِشْريكِيَّات القولونِيَّة المُنْزِفة للأَمْعاء",
                "عَدوَى بالإِشْريكِيَّات القولونِيَّة المُنْزِفة للأَمْعاء",
                "عَدوَى بالإِشْريكِيا كولي إنتيروهيمورجيك",
                "الْتِهابُ الأَمْعاء في عَدوَى الإِشْريكِيَّات القولونِيَّة المُنْزِفة للأَمْعاء",
                "التهاب الأمعاء في عَدوَى بالإِشْريكِيا كولي إنتيروهيمورجيك",
                "الْتِهابُ القولون في عَدوَى الإِشْريكِيَّات القولونِيَّة المُنْزِفة للأَمْعاء",
                "التهاب القولون ناجم عن إِشْريكِيا كولي إنتيروهيمورجيك"
            ]
        },
        {
            "code": "1A09.0",
            "title_en": "Salmonella enteritis",
            "title_ar": "التهاب الأمعاء بالسَّلْمونيلات",
            "definition_en": "This refers to inflammation of the small intestine due to infection of bacteria of the genus Salmonella, a rod-shaped, Gram-negative, non-spore-forming, predominantly motile enterobacteria.",
            "definition_ar": "يشير هذا المرض إلى التهاب الأمعاء الدقيقة الناجم عن العدوى بجراثيم من جنس السلمونيلة، وهي جراثيم بشكل العصيات أو النبابيت، وسلبية الغرام، ولا تشكل الأبواغ، ويغلب أن تكون من الجراثيم المعوية المتحركة.",
            "index_terms_en": [
                "Salmonella enteritis",
                "enteric paratyphosis",
                "food poisoning due to salmonella",
                "food poisoning due to salmonella with gastroenteritis",
                "salmonella enterica subspecies arizonae infection",
                "salmonella food poisoning",
                "salmonella gastroenteritis",
                "salmonella infection with enteritis",
                "salmonella dysentery",
                "Bacterial enteritis due to salmonella",
                "salmonella poisoning",
                "salmonellosis"
            ],
            "index_terms_ar": [
                "التهاب الأمعاء بالسَّلْمونيلات",
                "التسمم بالسلمونيلا",
                "التهاب الأمعاء الجرثومي الناجم عن السلمونيلا",
                "التهاب المعدة والأمعاء بالسلمونيلا",
                "العدوى بالسلمونيلا مع التهاب الأمعاء",
                "العدوى بالنوع الفرعي أريزونا من السلمونيلا المعوية",
                "تسمم غذائي ناجم عن السلمونيلا",
                "تسمم غذائي ناجم عن السلمونيلا",
                "تسمم غذائي ناجم عن السلمونيلا مع التهاب المعدة والأمعاء",
                "داء السلمونيلات",
                "زُحار بالسلمونيلا",
                "مرض نظير التيفويد المعوي",
                "تسمم غذائي تيفويدي"
            ]
        },
        {
            "code": "1D03.0",
            "title_en": "Intraspinal intramedullary abscess",
            "title_ar": "خراج داخل الحبل الشوكي وداخل النخاع",
            "definition_en": "",
            "definition_ar": "",
            "index_terms_en": [
                "Intraspinal intramedullary abscess"
            ],
            "index_terms_ar": [
                "خراج داخل الحبل الشوكي وداخل النخاع"
            ]
        },
        {
            "code": "1A03.2",
            "title_en": "Enteroinvasive Escherichia coli infection",
            "title_ar": "عَدوَى بالإِشْريكِيَّات القولونِيَّة الغزويّة للأَمْعاء",
            "definition_en": "A condition of the gastrointestinal system, caused by an infection with the gram-negative bacteria Escherichia coli. This condition is characterised by acute and profuse diarrhoea (that may be haemorrhagic), fever, and abdominal cramps. Transmission is by the faecal-oral route from ingestion of contaminated food or water. Confirmation is by identification of the Escherichia coli in a faecal sample.",
            "definition_ar": "حالة تصيب الجهاز الهضمي (المعدة والأمعاء) ناجمة عن عدوى بجراثيم الإِشْريكِيَّات القولونية السلبية الغرام. وتتسم هذه الحالة بالإسهَال الحاد والغزير (وقد يكون نزفيًا) والحمى والتقلصات في العضلات البطنية بسبب ذيفانات تنطلق من تلك الجراثيم. تَنتَقل العدوى عن طريق السبيل البرازي-الفموي بتناول الأغذية أو المِيَاه الملوثة. يتأكَّد التشخيص بكشف جراثيم الإِشْريكِيَّات القولونِيَّة في عينة البراز.",
            "index_terms_en": [
                "Enteroinvasive Escherichia coli infection",
                "EIEC - [Enteroinvasive Escherichia coli] infection",
                "Enteritis in enteroinvasive Escherichia coli infection",
                "Colitis in enteroinvasive Escherichia coli infection"
            ],
            "index_terms_ar": [
                "عَدوَى بالإِشْريكِيَّات القولونِيَّة الغزويّة للأَمْعاء",
                "عَدوَى بالإِشْريكِيَّات القولونِيَّة الغزويَّة للأَمْعاء",
                "عَدوَى بإِشْريكِيا كولي إنتيروإنفيسيف",
                "الْتِهابُ الأَمْعاء في عَدوَى الإِشْريكِيَّات القولونِيَّة الغزويَّة للأَمْعاء",
                "التهاب الأمعاء في عَدوَى بإِشْريكِيا كولي إنتيروإنفيسيف",
                "الْتِهابُ القولون في عَدوَى الإِشْريكِيَّات القولونِيَّة الغازِيَة للأَمْعاء",
                "الْتِهابُ القولون في عَدوَى بالإِشْريكِيا كولي إنتيروإنفيسيف"
            ]
        }
    ],
    "total_count": 85,
    "page": 1,
    "total_pages": 9,
    "page_size": 10
}